{
  "$schema": "https://raw.githubusercontent.com/jsonresume/resume-schema/v1.0.0/schema.json",
  "basics": {
    "name": "Johnny SAM",
    "label": "Développeur d'application - PHP / Symfony",
    "image": "",
    "email": "sam.johnny@live.fr",
    "phone": "0672196629",
    "url": "",
    "summary": "Passionné depuis toujours par l’univers du web, après 5 ans dans la gestion administrative, j’ai décidé de me donner les moyens de mes ambitions et de me former pour devenir développeur PHP/Symfony. Curieux, polyvalent, autonome, je souhaite aujourd’hui intégrer une entreprise dynamique dans laquelle je pourrais continuer à apprendre et exercer mon goût du challenge",
    "location": {
      "address": "89, Rue de l'Argonne",
      "postalCode": "93290",
      "city": "Tremblay-En-France",
      "countryCode": "FR"
    },
    "profiles": [
      {
        "network": "LinkedIn",
        "username": "johnny-sam-44585b218",
        "url": "https://www.linkedin.com/in/johnny-sam-44585b218/"
      },
      {
        "network": "GitHub",
        "username": "sam-johnny",
        "url": "https://www.github.com/sam-johnny/"
      },
      {
        "network": "Curriculum vitae",
        "username": "cv-sam-johnny.pdf",
        "url": "cv.pdf"
      }
    ]
  },
  "work": [
    {
      "name": "Chubb France",
      "position": "Gestionnaire de base de données",
      "startDate": "2018-08-31",
      "endDate": "2020-07-31",
      "highlights": [],
      "summary": "- Gestion de la facturation<br>- Former des équipes dans toutes les agences de France<br>- Apporter un support aux agences en cas d'anomalie<br>- Faire un suivi avec des indicateurs des chiffres de la facturation et faire l'animation",
      "url": "https://www.linkedin.com/company/chubb-france/",
      "location": "Villepinte, Île-de-France, France"
    },
    {
      "name": "Xerox",
      "position": "Responsable administratif",
      "startDate": "2015-11-30",
      "endDate": "2018-07-31",
      "highlights": [],
      "summary": "- Anticiper et identifier et résoudre les écarts entre les deux systèmes<br>- Anticiper et analyser les formules de révision de prix et communiquer avec les<br>gestionnaires<br>- Analyser les fiches clients et résoudre les problèmes en cas de blocage",
      "url": "https://www.linkedin.com/company/xerox/",
      "location": "Villepinte, Île-de-France, France"
    }
  ],
  "volunteer": [],
  "education": [
    {
      "institution": "OpenClassrooms",
      "area": "Développeur d'application - PHP / Symfony",
      "studyType": "Niveau 6 (bac +3/4)",
      "startDate": "2021-09-30",
      "endDate": "2022-06-30",
      "score": "",
      "Courses": [
        ["Faire un site Wordpress pour une agence immobilière"],
        ["Analyser un cahier des charges et choisir une solution technique adaptée parmi les solutions existantes"],
        ["Concevoir l’architecture technique d’une application à l’aide de diagrammes UML"],
        ["Créer des projets web dynamiques grâce PHP"],
        ["Communiquer avec une base de données pour stocker et requêter des informations"],
        ["Développer de manière professionnelle grâce au framework Symfony Mettre en oeuvre des tests unitaires et fonctionnels ainsi qu’utiliser les outils les plus connus d’intégration continue"],
        ["Produire une documentation technique et fonctionnelle de l’application"],
        ["Prendre en compte les problématiques de performance d’une application PHP"]
      ]
    }
  ],
  "awards": [],
  "certificates": [],
  "publications": [],
  "skills": [
    {
      "name": "Compétences techniques",
      "level": "",
      "keywords": ["Wordpress", "HTML5", "CSS3", "Bootstrap", "JavaScript", "Ajax", "PHP", "Symfony"]
    },
    {
      "name": "Compétences humaines",
      "level": "",
      "keywords": [
        "Gérer une équipe",
        "Résoudre un problème technique",
        "Formation et communication de process",
        "Être un support"
      ]
    }

  ],
  "languages": [
    {
      "language": "Français",
      "fluency": "Courant"
    },
    {
      "language": "Anglais",
      "fluency": "Scolaire"
    },
    {
      "language": "Cambogdien",
      "fluency": "Courant"
    }
  ],
  "interests": [],
  "references": [
    {
      "name": "Adrian Stoj (mentor Openclassrooms)",
      "reference": "Johnny est un développeur doué, techniquement à l’aise qui a rapidement maîtrisé le développement web autour de PHP/Symfony.<br>Humainement Johnny est quelqu’un de fiable et bienveillant qui sait s’adapter.<br>Je vous le recommande vivement, je pense qu’il sera une véritable valeur ajoutée à chaque équipe."
    }
  ],
  "projects": [],
  "meta": {
    "version": "v1.0.0",
    "canonical": "https://github.com/jsonresume/resume-schema/blob/v1.0.0/schema.json"
  }
}